<?xml version="1.0" standalone="no"?>
<!DOCTYPE svg PUBLIC "-//W3C//DTD SVG 20010904//EN"
 "http://www.w3.org/TR/2001/REC-SVG-20010904/DTD/svg10.dtd">
<svg version="1.0" xmlns="http://www.w3.org/2000/svg"
 width="348.000000pt" height="71.000000pt" viewBox="0 0 348.000000 71.000000"
 preserveAspectRatio="xMidYMid meet">
<metadata>
Created by potrace 1.15, written by Peter Selinger 2001-2017
</metadata>
<g transform="translate(0.000000,71.000000) scale(0.100000,-0.100000)"
fill="#000000" stroke="none">
<path d="M570 597 c0 -30 34 -61 140 -129 l85 -55 87 56 c107 69 138 98 138
128 l0 23 -225 0 -225 0 0 -23z"/>
<path d="M3017 606 c-59 -22 -103 -62 -132 -121 -24 -48 -27 -64 -24 -133 3
-66 9 -86 34 -128 100 -160 337 -144 416 30 28 61 25 167 -5 232 -51 110 -174
161 -289 120z m173 -54 c45 -44 60 -92 60 -187 0 -95 -15 -143 -60 -187 -34
-35 -42 -38 -92 -38 -98 0 -148 66 -156 205 -6 104 10 159 58 207 35 35 42 38
95 38 53 0 60 -3 95 -38z"/>
<path d="M80 597 l35 -12 3 -209 c3 -216 -1 -236 -39 -236 -10 0 -21 -5 -24
-10 -4 -7 60 -10 183 -10 l190 0 20 60 c22 65 17 78 -12 30 -30 -52 -54 -61
-152 -58 l-89 3 -3 103 -3 102 79 0 c80 0 102 -9 102 -41 0 -10 5 -21 10 -24
6 -4 10 26 10 82 -1 87 -1 88 -17 58 -22 -42 -29 -45 -110 -45 l-73 0 0 95 0
95 93 0 c50 0 97 -4 104 -8 7 -4 19 -23 27 -42 l15 -35 1 58 0 57 -192 -1
c-163 0 -188 -2 -158 -12z"/>
<path d="M1154 600 c16 -5 33 -15 37 -22 5 -7 9 -103 9 -214 0 -212 -3 -224
-47 -224 -13 0 -23 -4 -23 -10 0 -6 42 -10 105 -10 63 0 105 4 105 10 0 6 -13
10 -29 10 -37 0 -41 12 -41 120 l0 89 53 -6 c71 -7 125 13 155 57 49 72 9 176
-77 200 -46 13 -289 12 -247 0z m215 -34 c52 -27 68 -112 30 -160 -29 -37 -54
-48 -94 -40 l-35 6 0 104 0 104 35 0 c20 0 48 -6 64 -14z"/>
<path d="M1560 597 l35 -12 3 -200 c1 -110 0 -210 -3 -222 -4 -16 -13 -23 -30
-23 -13 0 -27 -5 -30 -10 -4 -7 59 -10 183 -10 l189 0 22 56 c12 32 18 60 15
63 -4 3 -9 -1 -12 -9 -3 -8 -20 -30 -38 -47 -31 -32 -34 -33 -122 -33 -73 0
-91 3 -96 16 -3 9 -6 56 -6 105 l0 90 82 -3 83 -3 17 -35 17 -35 0 90 c1 87 0
89 -15 60 -21 -41 -30 -45 -111 -45 l-73 0 0 95 0 95 95 0 c82 0 98 -3 115
-20 11 -11 20 -29 20 -41 0 -11 3 -18 8 -16 4 3 5 28 4 56 l-4 51 -191 -1
c-162 0 -187 -2 -157 -12z"/>
<path d="M2016 596 c18 -8 34 -24 37 -37 11 -38 8 -365 -3 -393 -7 -19 -17
-26 -35 -26 -14 0 -25 -4 -25 -10 0 -6 40 -10 100 -10 55 0 100 4 100 9 0 5
-12 11 -27 13 -34 4 -41 26 -42 131 l-1 77 28 0 c25 0 39 -15 111 -115 l83
-115 64 0 c36 0 64 4 64 10 0 6 -7 10 -15 10 -35 0 -71 30 -129 109 -34 47
-66 92 -70 98 -5 9 6 18 33 29 50 20 74 56 74 111 0 34 -6 50 -28 73 -39 41
-79 50 -225 50 -114 -1 -122 -2 -94 -14z m238 -42 c41 -42 40 -106 -3 -145
-29 -27 -100 -47 -121 -34 -11 7 -14 187 -3 198 3 4 27 7 53 7 38 0 53 -5 74
-26z"/>
<path d="M2430 554 c0 -34 4 -53 10 -49 6 3 10 13 10 21 0 32 38 54 95 54 l55
0 0 -201 c0 -119 -4 -208 -10 -220 -6 -11 -21 -19 -35 -19 -14 0 -25 -4 -25
-10 0 -6 42 -10 107 -10 65 0 103 4 98 9 -6 5 -21 11 -35 13 l-25 3 -3 218 -2
217 48 0 c55 0 102 -28 102 -61 0 -10 5 -19 10 -19 11 0 13 52 4 88 -6 22 -7
22 -205 22 l-199 0 0 -56z"/>
<path d="M577 433 c-4 -3 -7 -35 -7 -70 0 -50 4 -65 16 -70 16 -6 79 23 124
57 22 17 22 17 -36 53 -57 36 -84 44 -97 30z"/>
<path d="M917 404 l-58 -36 58 -39 c32 -22 67 -38 78 -37 18 3 20 11 20 73 0
62 -2 70 -20 73 -11 1 -46 -14 -78 -34z"/>
<path d="M710 263 c-106 -69 -140 -100 -140 -130 l0 -23 225 0 225 0 0 23 c0
33 -44 71 -185 159 l-41 26 -84 -55z"/>
</g>
</svg>
